CONTAINER fcs_O_nurbo_taxiline  // Like the filename without ".res"
{
	NAME IDS_NURBO_TAXILINE_NAME;  // Name of object or tag etc.. for the parameters.

	// [INCLUDE] Base description for the node type plugin, 
	// For example: 
	// Tbase for tags. 
	// Obase for Objects.
	// Xbase for shader.
	// Mpreview for material preview.	
	// ToolBase
	
	INCLUDE Obase;

	GROUP ID_OBJECTPROPERTIES
	{

		GROUP IDS_NURBO_TAXILINE_GROUP   // The Group Id.
		{

			// Group [flags] Settings
			COLUMNS 1;	

			REAL IDS_NURBO_TAXILINE_SIZE { }

			SEPARATOR {LINE;}

			STATICTEXT IDS_NURBO_TAXILINE_ANCHOR_GROUP { ANIM OFF; }

			LONG IDS_NURBO_TAXILINE_ANCHOR_TYPE
			{
				CYCLE
				{
					IDS_NURBO_TAXILINE_ANCHOR_CENTER;
					IDS_NURBO_TAXILINE_ANCHOR_INNER;
					IDS_NURBO_TAXILINE_ANCHOR_OUTER;
				}
			}

			SEPARATOR {LINE;}

			LINK ID_OBJECT_INS_LINK
			{
				ANIM ON;
				ACCEPT { Obase; }
				REFUSE { Osky; Oforeground; Tbase; }
			}


			SEPARATOR {LINE;}

			STATICTEXT IDS_NURBO_TAXILINE_SPLINE_ANGLE_TXT { ANIM OFF; }

			REAL IDS_NURBO_TAXILINE_SPLINE_ANGLE { UNIT DEGREE; }

		}

		GROUP IDS_NURBO_TAXILINE_SWEEP_GRP
		{

			COLUMNS 1;
			
			BOOL IDS_NURBO_SWEEPOBJECT_PARALLEL { }

			BOOL IDS_NURBO_SWEEPOBJECT_BANKING { }

			BOOL IDS_NURBO_SWEEPOBJECT_RAILDIRECTION { }

			BOOL IDS_NURBO_SWEEPOBJECT_RAILSCALE { }

			BOOL IDS_NURBO_SWEEPOBJECT_CONSTANT { }

			BOOL IDS_NURBO_SWEEPOBJECT_KEEPSEGMENTS { }

			BOOL IDS_NURBO_SWEEPOBJECT_BIRAIL { }

			BOOL IDS_NURBO_SWEEPOBJECT_FLIPNORMALS { }

			BOOL IDS_NURBO_SWEEPOBJECT_GROWUV { }

			SEPARATOR {LINE;}

			GROUP IDS_NURBO_SWEEPOBJECT_CAPS_GRP
			{
				COLUMNS 1;
				
				BOOL IDS_NURBO_CAP_CONNECT { }
			}

		}

		GROUP ID_GRP_SYSTEM_PARENT
		{
			STRING ID_SYSTEM_PARENT
			{
				ANIM ON;
			} 

		}

		SEPARATOR {LINE;}

		BUTTON IDS_NURBO_TAXILINE_BUTTON_SET { }

	}
	//INCLUDE Osweep;

}