CONTAINER fcs_T_flightSimFx

{

	NAME fcs_T_flightSimFx;

	GROUP
	{
		GROUP FSFx_XML_GROUP
		{
			COLUMNS 2;
			STATICTEXT FSFx_XML {}
			STRING FSFx_XML_FIELD { ANIM OFF; CUSTOMGUI MULTISTRING; SCALE_H; WORDWRAP; }	
		}
		GROUP FSFx_GLOBAL_PROPERTIES_GROUP
		{
		 	COLUMNS 1;
		 	STRING FSFx_GLOBAL_X { ANIM OFF; }
		 	STRING FSFx_GLOBAL_Y { ANIM OFF; }
		 	STRING FSFx_GLOBAL_Z { ANIM OFF; }
		}
	}
}