CONTAINER fcs_T_rpTemp
{
	NAME fcs_T_rpTemp;

	INCLUDE Tbase;
	// INCLUDE Texpression;
	// INCLUDE Tannotation;
	
	GROUP FCS_RP_TEMP_TAG_GRP_SETTINGS
	{
		COLUMNS 1;

		STRING FCS_RP_TEMP_TAG_ITEMTYPE {}

		COLOR FCS_RP_TEMP_TAG_COLOR_1 {}
	}
}
