DIALOG fcs_toolset_manager_gui_dlg
{
 NAME ID_TPM_DLG_TITLE;
 SCALE_H;
 GROUP ID_TPM_OVERALL_GRP
 {
  COLUMNS 1;
  SPACE 4,4;
  SCALE_H;
  GROUP 
  {
   COLUMNS 1;
   SCALE_H;
   SPACE 4,4;
   BORDERSIZE 4,4,4,4;
   MULTILINEEDIT ID_TPM_INFO_TEXT
   {
    SCALE_H;
    SIZE 120,80;
   }

  }

  GROUP ID_TPM_COL_HEADER_GRP
  {
   COLUMNS 2;
   SCALE_H;
   SPACE 4,4;
   BORDERSIZE 4,4,4,4;
   STATICTEXT ID_TPM_STATIC_TXT1
   {
    NAME ID_TPM_STATIC_TXT1;
    SCALE_H;
    ALIGN_LEFT;
   }

   STATICTEXT ID_TRM_STATIC_TXT3
   {
    NAME ID_TPM_STATIC_TXT1;
    SCALE_H;
    ALIGN_RIGHT;
   }

  }

  SCROLLGROUP ID_TPM_LIST_VIEW_GRP
  {
   SCALE_H;
   SIZE 120,290;
   SCROLL_V;
   GROUP ID_TRM_LIST_GRP
   {
    COLUMNS 1;
    SCALE_H;
   }

  }

  GROUP 
  {
   COLUMNS 2;
   SCALE_H;
   BUTTON ID_TPM_DISABLE_ALL
   {
    NAME ID_TPM_DISABLE_ALL;
    FIT_H;
    SCALE_H;
   }

   BUTTON ID_TPM_ENABLE_All
   {
    NAME ID_TPM_ENABLE_All;
    FIT_H;
    SCALE_H;
   }

  }

  GROUP ID_TRM_EMPTY_BOTTOM_GRP
  {
   COLUMNS 1;
   SCALE_H;
   SEPARATOR 
   {
    SCALE_H;
   }

  }

 }

}
