DIALOG fcs_fs_sdk_attachfx_gui_dlg
{
 NAME ID_FS_SDK_DIALOG_TITLE;
 SCALE_H;
 GROUP ID_FS_OVERALL_GRP
 {
  SCALE_H;
  COLUMNS 1;
  TAB ID_FS_TABS_GRP
  {
   SELECTION_TABS;
   SCALE_V;
   SCALE_H;
   GROUP ID_FS_ATTACH_FX_TAB_GRP
   {
    COLUMNS 1;
    NAME ID_FS_ATTACH_FX_TAB_GRP;
    FIT_H;
    GROUP ID_FSFX_CHOOSE_SIM_GRP
    {
     COLUMNS 2;
     SCALE_H;
     BORDERSIZE 6,6,6,6;
     STATICTEXT ID_FSFX_CHOOSE_TXT
     {
      CENTER_H;
      SIZE 0,0;
      NAME ID_FSFX_CHOOSE_TXT;
     }

     RADIOGROUP ID_FSFX_RADIO_BTNS_GRP
     {
      COLUMNS 4;
      SCALE_H;
      RADIOGADGET ID_FSFX_RADIO_BTN_FSX
      {
       NAME ID_FSFX_RADIO_BTN_FSX;
      }

      RADIOGADGET ID_FSFX_RADIO_BTN_FSXSE
      {
       NAME ID_FSFX_RADIO_BTN_FSXSE;
      }

      RADIOGADGET ID_FSFX_RADIO_BTN_P3Dv3
      {
       NAME ID_FSFX_RADIO_BTN_P3Dv3;
      }

      RADIOGADGET ID_FSFX_RADIO_BTN_P3Dv4
      {
       NAME ID_FSFX_RADIO_BTN_P3Dv4;
      }

     }

    }

    SEPARATOR 
    {
     SCALE_H;
    }

    GROUP ID_FSFX_SEARCH_BAR_GRP
    {
     COLUMNS 2;
     SCALE_H;
     STATICTEXT ID_FSFX_SEARCH_TXT
     {
      SIZE 0,10;
      NAME ID_FSFX_SEARCH_TXT;
      CENTER_H;
     }

     EDITTEXT ID_FSFX_SEARCH_EDIT_BAR
     {
      SCALE_H;
      SIZE 250,10;
     }

    }

    SEPARATOR 
    {
     SCALE_H;
    }

    SCROLLGROUP ID_FSFX_CONTAINER_SCROLLGRP
    {
     SCALE_H;
     SCROLL_H;
     SCROLL_V;
     SIZE 100,190;
     GROUP ID_FSFX_LISTCONTAINER_GRP
     {
      COLUMNS 1;
      SCALE_H;
     }

    }

   }

  }

 }

}
